{name: "snap ring k2 actual value"}
1: {name: "snap ring k2 theoretical"}
2: {name: "difference_value_point4"}
3: {name: "difference_value_point3"}
4: {name: "difference_value_point2"}
5: {name: "difference_value_point1"}
6: {name: "second_testing_point4"}
7: {name: "second_testing_point3"}
8: {name: "second_testing_point2"}
9: {name: "second_testing_point1"}
10: {name: "first_testing_point4"}
11: {name: "first_testing_point3"}
12: {name: "first_testing_point2"}
13: {name: "first_testing_point1"}
14: {name: "value_b"}
15: {name: "displacement_low_max"}
16: {name: "press_force_low_max"}
17: {name: "displacement_up_max"}
18: {name: "press_force_up_max"}
19: {name: "m4_x10_6"}
20: {name: "m4_x10_5"}
21: {name: "m4_x10_4"}
22: {name: "m4_x10_3"}
23: {name: "m4_x10_2"}
24: {name: "m4_x10_1"}
25: {name: "leaktest_p2"}
26: {name: "leaktest_p1"}
27: {name: "result_snap_ring_point4"}
28: {name: "result_snap_ring_point3"}
29: {name: "result_snap_ring_point2"}
30: {name: "result_snap_ring_point1"}
31: {name: "leaktest_p1"}
32: {name: "displacement_e"}
33: {name: "displacement_g"}
34: {name: "displacement_e3"}
35: {name: "displacement_e2"}
36: {name: "displacement_e1"}
37: {name: "displacement_c"}
38: {name: "b_displacement_3"}
39: {name: "b_displacement_2"}
40: {name: "b_displacement_1"}
41: {name: "snap_ring"}
42: {name: "leaktest_p1"}
43: {name: "energy_issue"}
44: {name: "leaktest_p1"}
45: {name: "displacement_max"}
46: {name: "press_max"}
47: {name: "leaktest_p2"}
48: {name: "leaktest_p1"}
49: {name: "displacement_max_value"}
50: {name: "pressing_force_max_value"}
51: {name: "leaktest_p1"}
52: {name: "result_snap_ring_k0_point4"}
53: {name: "result_snap_ring_k0_point3"}
54: {name: "result_snap_ring_k0_point2"}
55: {name: "result_snap_ring_k0_point1"}
56: {name: "m6_x12_screwing9"}
57: {name: "m6_x12_screwing8"}
58: {name: "m6_x12_screwing7"}
59: {name: "m5_x16_screwing6"}
60: {name: "m5_x16_screwing5"}
61: {name: "m8_x67_screwing4"}
62: {name: "m8_x67_screwing3"}
63: {name: "m8_x67_screwing2"}
64: {name: "m8_x67_screwing1"}
65: {name: "sel_snap_ring_k1_actrual_value"}
66: {name: "sel_snap_ring_k1_theoretical_value"}
67: {name: "sel_sp_k1_actrual_value"}
68: {name: "sel_sp_k1_theoretical_value"}
69: {name: "sel_disk_actrual_value"}
70: {name: "sel_disk_theoretical_value"}
71: {name: "g"}
72: {name: "e"}
73: {name: "c"}
74: {name: "pl20_fp_pack_k1_thickness"}
75: {name: "h_value"}
76: {name: "f_value"}
77: {name: "d_value"}
78: {name: "result_snap_ring_k0_point4"}
79: {name: "result_snap_ring_k0_point3"}
80: {name: "result_snap_ring_k0_point2"}
81: {name: "result_snap_ring_k0_point1"}
82: {name: "snapring_actrual_value"}
83: {name: "snapring_theoretical_value"}
84: {name: "k0_value"}
85: {name: "a_value"}
86: {name: "result_snap_ring_inside_point3"}
87: {name: "result_snap_ring_inside_point2"}
88: {name: "result_snap_ring_inside_point1"}
89: {name: "result_snap_ring_outside_point3"}
90: {name: "result_snap_ring_outside_point2"}
91: {name: "result_snap_ring_outside_point1"}
92: {name: "displacement_max"}
93: {name: "press_force_max"}
94: {name: "leaktest_p2"}
95: {name: "leaktest_p1"}
96: {name: "m4_x10_rs_screwing12"}
97: {name: "m4_x10_rs_screwing11"}
98: {name: "m4_x10_rs_screwing10"}
99: {name: "m4_x10_rs_screwing9"}
{name: "m4_x10_cs_screwing8"}
101: {name: "m4_x10_cs_screwing7"}
102: {name: "m6_x20_screwing6"}
103: {name: "m6_x20_screwing5"}
104: {name: "m6_x20_screwing4"}
105: {name: "m6_x20_screwing3"}
106: {name: "m4_x14_screwing2"}
107: {name: "m4_x14_screwing1"}
108: {name: "sleeve2pressingstroke"}
109: {name: "sleeve2pressingforce"}
110: {name: "sleeve1pressingstroke"}
111: {name: "sleeve1pressingforce"}
112: {name: "upperbearingpressingstroke"}
113: {name: "upperbearingpressingforce"}
114: {name: "lowerbearingpressingstroke"}
115: {name: "lowerbearingpressingforce"}