{
    "industryid":4,
    "loginType":"INFINITY",
    "substationid":"substation-227",
    "stationprefix": "ASF-P2",
    "handshake": false,
    "server":{
       "protocol":"http",
       "host":"192.168.1.100",
       "port":80
    },
    "messerver": {
      "protocol": "http",
      "host": "dalvsmesweb1",
      "port": 80
    },
    "socketio":{
      "protocol": "http",
      "host":"192.168.1.100",
      "port":10190,
      "namespace":"linemes",
      "eventname": "mes"
    },
    "credential":{
       "identifier":"918928509173",
       "password":"entrib"
    },
    "assetid": 4,
    "kafkaEdge":{
       "host":"192.168.1.100",
       "port":10089,
       "fetchMinBytes":1,
       "fetchMaxBytes":750,
       "fromOffset":"latest",
       "outOfRangeOffset":"earliest",
       "autoCommit":true,
       "autoCommitIntervalMs":100
    },
    "logger":{
       "loglevel":50
    },
    "status":{
       "running":"Running"
    },
    "elements": {
      "substation": "substation",
      "subline": "subline",
      "order": "order",
      "orderproduct": "orderproduct",
      "orderrecipe": "orderrecipe",
      "orderroadmap": "orderroadmap",
      "roadmapdetails": "roadmapdetails",
      "ordercount": "ordercount",
      "checkin": "checkin",
      "checkout": "checkout",
      "component": "component",
      "partstatus": "partstatus",
      "rework": "rework",
      "bomdetails": "bomdetails",
      "componentcheck": "componentcheck",
      "productionimage": "productionimage",
      "productionimageinfo": "productionimageinfo",
      "mesoffline": "mesoffline",
      "parameters": "parameters"
    },
    "defaults":{
       "maxServerRetryCount":3,
       "maxPLCRetryCheckoutFeedbackCount": 20,
       "maxPLCRetryCheckinFeedbackCount": 20,
       "maxPLCRetrySubAssemblyCheckFeedbackCount": 20,
       "maxPLCRetryComponentCheckFeedbackCount": 20,
       "maxPLCRetryReceipeCount": 20,
       "resetValueDealyTime":1.5,
       "maxPLCRetryCount":5,
       "retryServerTimer":1,
       "retryToPLCTimer":200,
       "retrykafkaconnection":10,
       "requesttimeout":45,
       "subassemblyID": "21",
       "componentID":"24",
       "batchID":"26",
       "subprocessparameters":"17",
       "processparameters":"18",
       "subprocessresult":"15",
       "normalmodestatus": 0,
       "reworkmodestatus": 1,
       "isPreviousDataIgnored":true,
       "mappingway": 1,
       "finalstep": "1"
    }
 }